<?xml version="1.0" encoding="UTF-8" standalone="no" ?>
<COLLADA xmlns="http://www.collada.org/2005/11/COLLADASchema" version="1.4.1">
    <asset>
        <contributor>
            <authoring_tool>SketchUp 14.0.4900</authoring_tool>
        </contributor>
        <created>2014-05-24T23:48:55Z</created>
        <modified>2014-05-24T23:48:55Z</modified>
        <unit meter="0.0254" name="inch" />
        <up_axis>Z_UP</up_axis>
    </asset>
    <library_visual_scenes>
        <visual_scene id="ID1">
            <node name="SketchUp">
                <node id="ID2" name="group_0">
                    <matrix>1 0 0 -7.907891 0 1 0 -5.74712 0 0 1 -2.842171e-014 0 0 0 1</matrix>
                    <instance_geometry url="#ID72">
                        <bind_material>
                            <technique_common>
                                <instance_material symbol="Material2" target="#ID57">
                                    <bind_vertex_input semantic="UVSET0" input_semantic="TEXCOORD" input_set="0" />
                                </instance_material>
                            </technique_common>
                        </bind_material>
                    </instance_geometry>
                    <instance_geometry url="#ID78">
                        <bind_material>
                            <technique_common>
                                <instance_material symbol="Material2" target="#ID66">
                                    <bind_vertex_input semantic="UVSET0" input_semantic="TEXCOORD" input_set="0" />
                                </instance_material>
                            </technique_common>
                        </bind_material>
                    </instance_geometry>
                    <node id="ID3" name="group_1">
                        <matrix>1 0 0 0 0 1 0 0 0 0 1 0 0 0 0 1</matrix>
                        <instance_geometry url="#ID4">
                            <bind_material>
                                <technique_common>
                                    <instance_material symbol="Material2" target="#ID5">
                                        <bind_vertex_input semantic="UVSET0" input_semantic="TEXCOORD" input_set="0" />
                                    </instance_material>
                                </technique_common>
                            </bind_material>
                        </instance_geometry>
                        <instance_geometry url="#ID12">
                            <bind_material>
                                <technique_common>
                                    <instance_material symbol="Material2" target="#ID13">
                                        <bind_vertex_input semantic="UVSET0" input_semantic="TEXCOORD" input_set="0" />
                                    </instance_material>
                                </technique_common>
                            </bind_material>
                        </instance_geometry>
                        <instance_geometry url="#ID20">
                            <bind_material>
                                <technique_common>
                                    <instance_material symbol="Material2" target="#ID13">
                                        <bind_vertex_input semantic="UVSET0" input_semantic="TEXCOORD" input_set="0" />
                                    </instance_material>
                                </technique_common>
                            </bind_material>
                        </instance_geometry>
                        <instance_geometry url="#ID26">
                            <bind_material>
                                <technique_common>
                                    <instance_material symbol="Material2" target="#ID13">
                                        <bind_vertex_input semantic="UVSET0" input_semantic="TEXCOORD" input_set="0" />
                                    </instance_material>
                                </technique_common>
                            </bind_material>
                        </instance_geometry>
                        <instance_geometry url="#ID32">
                            <bind_material>
                                <technique_common>
                                    <instance_material symbol="Material2" target="#ID13">
                                        <bind_vertex_input semantic="UVSET0" input_semantic="TEXCOORD" input_set="0" />
                                    </instance_material>
                                </technique_common>
                            </bind_material>
                        </instance_geometry>
                        <instance_geometry url="#ID38">
                            <bind_material>
                                <technique_common>
                                    <instance_material symbol="Material2" target="#ID13">
                                        <bind_vertex_input semantic="UVSET0" input_semantic="TEXCOORD" input_set="0" />
                                    </instance_material>
                                </technique_common>
                            </bind_material>
                        </instance_geometry>
                        <instance_geometry url="#ID44">
                            <bind_material>
                                <technique_common>
                                    <instance_material symbol="Material2" target="#ID13">
                                        <bind_vertex_input semantic="UVSET0" input_semantic="TEXCOORD" input_set="0" />
                                    </instance_material>
                                </technique_common>
                            </bind_material>
                        </instance_geometry>
                        <instance_geometry url="#ID50">
                            <bind_material>
                                <technique_common>
                                    <instance_material symbol="Material2" target="#ID13">
                                        <bind_vertex_input semantic="UVSET0" input_semantic="TEXCOORD" input_set="0" />
                                    </instance_material>
                                </technique_common>
                            </bind_material>
                        </instance_geometry>
                        <instance_geometry url="#ID56">
                            <bind_material>
                                <technique_common>
                                    <instance_material symbol="Material2" target="#ID57">
                                        <bind_vertex_input semantic="UVSET0" input_semantic="TEXCOORD" input_set="0" />
                                    </instance_material>
                                </technique_common>
                            </bind_material>
                        </instance_geometry>
                        <instance_geometry url="#ID64">
                            <bind_material>
                                <technique_common>
                                    <instance_material symbol="Material2" target="#ID66">
                                        <bind_vertex_input semantic="UVSET0" input_semantic="TEXCOORD" input_set="0" />
                                    </instance_material>
                                </technique_common>
                            </bind_material>
                        </instance_geometry>
                    </node>
                </node>
            </node>
        </visual_scene>
    </library_visual_scenes>
    <library_geometries>
        <geometry id="ID4">
            <mesh>
                <source id="ID7">
                    <float_array id="ID10" count="72">9.520449 1.921662 39.37008 3.543307 0 35.43307 10.62992 0 35.43307 4.652779 1.921662 39.37008 4.652779 1.921662 39.37008 0 6.137188 35.43307 3.543307 0 35.43307 2.218944 6.137188 39.37008 14.17323 6.137188 35.43307 9.520449 1.921662 39.37008 10.62992 0 35.43307 11.95428 6.137188 39.37008 4.652779 10.35271 39.37008 0 6.137188 35.43307 2.218944 6.137188 39.37008 3.543307 12.27438 35.43307 10.62992 12.27438 35.43307 11.95428 6.137188 39.37008 14.17323 6.137188 35.43307 9.520449 10.35271 39.37008 4.652779 10.35271 39.37008 10.62992 12.27438 35.43307 3.543307 12.27438 35.43307 9.520449 10.35271 39.37008</float_array>
                    <technique_common>
                        <accessor count="24" source="#ID10" stride="3">
                            <param name="X" type="float" />
                            <param name="Y" type="float" />
                            <param name="Z" type="float" />
                        </accessor>
                    </technique_common>
                </source>
                <source id="ID8">
                    <float_array id="ID11" count="72">0 -0.8986632 0.4386394 0 -0.8986632 0.4386394 0 -0.8986632 0.4386394 0 -0.8986632 0.4386394 -0.7782651 -0.4493316 0.4386394 -0.7782651 -0.4493316 0.4386394 -0.7782651 -0.4493316 0.4386394 -0.7782651 -0.4493316 0.4386394 0.7782651 -0.4493316 0.4386394 0.7782651 -0.4493316 0.4386394 0.7782651 -0.4493316 0.4386394 0.7782651 -0.4493316 0.4386394 -0.7782651 0.4493316 0.4386394 -0.7782651 0.4493316 0.4386394 -0.7782651 0.4493316 0.4386394 -0.7782651 0.4493316 0.4386394 0.7782651 0.4493316 0.4386394 0.7782651 0.4493316 0.4386394 0.7782651 0.4493316 0.4386394 0.7782651 0.4493316 0.4386394 0 0.8986632 0.4386394 0 0.8986632 0.4386394 0 0.8986632 0.4386394 0 0.8986632 0.4386394</float_array>
                    <technique_common>
                        <accessor count="24" source="#ID11" stride="3">
                            <param name="X" type="float" />
                            <param name="Y" type="float" />
                            <param name="Z" type="float" />
                        </accessor>
                    </technique_common>
                </source>
                <vertices id="ID9">
                    <input semantic="POSITION" source="#ID7" />
                    <input semantic="NORMAL" source="#ID8" />
                </vertices>
                <triangles count="12" material="Material2">
                    <input offset="0" semantic="VERTEX" source="#ID9" />
                    <p>0 1 2 1 0 3 4 5 6 5 4 7 8 9 10 9 8 11 12 13 14 13 12 15 16 17 18 17 16 19 20 21 22 21 20 23</p>
                </triangles>
            </mesh>
        </geometry>
        <geometry id="ID12">
            <mesh>
                <source id="ID15">
                    <float_array id="ID18" count="90">8.070866 1.181102 19.42131 6.102362 0 19.42131 6.102362 1.181102 19.42131 8.070866 0 19.42131 5.11811 1.181102 17.71654 6.102362 0 19.42131 5.11811 0 17.71654 6.102362 1.181102 19.42131 9.055118 1.181102 17.71654 6.102362 1.181102 16.01176 8.070866 1.181102 16.01176 5.11811 1.181102 17.71654 8.070866 1.181102 19.42131 6.102362 1.181102 19.42131 8.070866 1.181102 19.42131 9.055118 0 17.71654 8.070866 0 19.42131 9.055118 1.181102 17.71654 6.102362 1.181102 16.01176 5.11811 0 17.71654 6.102362 0 16.01176 5.11811 1.181102 17.71654 8.070866 0 16.01176 6.102362 1.181102 16.01176 6.102362 0 16.01176 8.070866 1.181102 16.01176 9.055118 1.181102 17.71654 8.070866 0 16.01176 9.055118 0 17.71654 8.070866 1.181102 16.01176</float_array>
                    <technique_common>
                        <accessor count="30" source="#ID18" stride="3">
                            <param name="X" type="float" />
                            <param name="Y" type="float" />
                            <param name="Z" type="float" />
                        </accessor>
                    </technique_common>
                </source>
                <source id="ID16">
                    <float_array id="ID19" count="90">-0 -0 -1 -0 -0 -1 -0 -0 -1 -0 -0 -1 0.8660254 0 -0.5 0.8660254 0 -0.5 0.8660254 0 -0.5 0.8660254 0 -0.5 0 -1 0 0 -1 0 0 -1 0 0 -1 0 0 -1 0 0 -1 0 -0.8660254 -0 -0.5 -0.8660254 -0 -0.5 -0.8660254 -0 -0.5 -0.8660254 -0 -0.5 0.8660254 0 0.5 0.8660254 0 0.5 0.8660254 0 0.5 0.8660254 0 0.5 0 0 1 0 0 1 0 0 1 0 0 1 -0.8660254 0 0.5 -0.8660254 0 0.5 -0.8660254 0 0.5 -0.8660254 0 0.5</float_array>
                    <technique_common>
                        <accessor count="30" source="#ID19" stride="3">
                            <param name="X" type="float" />
                            <param name="Y" type="float" />
                            <param name="Z" type="float" />
                        </accessor>
                    </technique_common>
                </source>
                <vertices id="ID17">
                    <input semantic="POSITION" source="#ID15" />
                    <input semantic="NORMAL" source="#ID16" />
                </vertices>
                <triangles count="16" material="Material2">
                    <input offset="0" semantic="VERTEX" source="#ID17" />
                    <p>0 1 2 1 0 3 4 5 6 5 4 7 8 9 10 9 8 11 11 8 12 11 12 13 14 15 16 15 14 17 18 19 20 19 18 21 22 23 24 23 22 25 26 27 28 27 26 29</p>
                </triangles>
            </mesh>
        </geometry>
        <geometry id="ID20">
            <mesh>
                <source id="ID21">
                    <float_array id="ID24" count="90">2.26378 2.216207 16.01176 2.302392 4.511532 16.01176 1.279528 3.920981 16.01176 3.286644 2.806758 16.01176 2.755906 1.36382 17.71654 3.286644 2.806758 16.01176 2.26378 2.216207 16.01176 3.77877 1.954371 17.71654 3.286644 2.806758 19.42131 3.286644 2.806758 16.01176 3.77877 1.954371 17.71654 2.302392 4.511532 16.01176 2.302392 4.511532 19.42131 1.810266 5.36392 17.71654 1.810266 5.36392 17.71654 1.279528 3.920981 16.01176 2.302392 4.511532 16.01176 0.7874016 4.773368 17.71654 2.26378 2.216207 19.42131 3.77877 1.954371 17.71654 2.755906 1.36382 17.71654 3.286644 2.806758 19.42131 2.302392 4.511532 19.42131 2.26378 2.216207 19.42131 1.279528 3.920981 19.42131 3.286644 2.806758 19.42131 2.302392 4.511532 19.42131 0.7874016 4.773368 17.71654 1.810266 5.36392 17.71654 1.279528 3.920981 19.42131</float_array>
                    <technique_common>
                        <accessor count="30" source="#ID24" stride="3">
                            <param name="X" type="float" />
                            <param name="Y" type="float" />
                            <param name="Z" type="float" />
                        </accessor>
                    </technique_common>
                </source>
                <source id="ID22">
                    <float_array id="ID25" count="90">2.403729e-016 1.387794e-016 1 2.403729e-016 1.387794e-016 1 2.403729e-016 1.387794e-016 1 2.403729e-016 1.387794e-016 1 -0.4330127 0.75 0.5 -0.4330127 0.75 0.5 -0.4330127 0.75 0.5 -0.4330127 0.75 0.5 -0.8660254 -0.5 2.775587e-016 -0.8660254 -0.5 2.775587e-016 -0.8660254 -0.5 2.775587e-016 -0.8660254 -0.5 2.775587e-016 -0.8660254 -0.5 2.775587e-016 -0.8660254 -0.5 2.775587e-016 0.4330127 -0.75 0.5 0.4330127 -0.75 0.5 0.4330127 -0.75 0.5 0.4330127 -0.75 0.5 -0.4330127 0.75 -0.5 -0.4330127 0.75 -0.5 -0.4330127 0.75 -0.5 -0.4330127 0.75 -0.5 6.620164e-016 -1.701763e-015 -1 6.620164e-016 -1.701763e-015 -1 6.620164e-016 -1.701763e-015 -1 6.620164e-016 -1.701763e-015 -1 0.4330127 -0.75 -0.5 0.4330127 -0.75 -0.5 0.4330127 -0.75 -0.5 0.4330127 -0.75 -0.5</float_array>
                    <technique_common>
                        <accessor count="30" source="#ID25" stride="3">
                            <param name="X" type="float" />
                            <param name="Y" type="float" />
                            <param name="Z" type="float" />
                        </accessor>
                    </technique_common>
                </source>
                <vertices id="ID23">
                    <input semantic="POSITION" source="#ID21" />
                    <input semantic="NORMAL" source="#ID22" />
                </vertices>
                <triangles count="16" material="Material2">
                    <input offset="0" semantic="VERTEX" source="#ID23" />
                    <p>0 1 2 1 0 3 4 5 6 5 4 7 8 9 10 9 8 11 11 8 12 11 12 13 14 15 16 15 14 17 18 19 20 19 18 21 22 23 24 23 22 25 26 27 28 27 26 29</p>
                </triangles>
            </mesh>
        </geometry>
        <geometry id="ID26">
            <mesh>
                <source id="ID27">
                    <float_array id="ID30" count="90">2.302392 7.762843 16.01176 2.26378 10.05817 16.01176 1.279528 8.353395 16.01176 3.286644 9.467618 16.01176 0.7874016 7.501007 17.71654 2.302392 7.762843 16.01176 1.279528 8.353395 16.01176 1.810266 6.910456 17.71654 2.302392 7.762843 19.42131 2.302392 7.762843 16.01176 1.810266 6.910456 17.71654 3.286644 9.467618 16.01176 3.286644 9.467618 19.42131 3.77877 10.32001 17.71654 3.77877 10.32001 17.71654 2.26378 10.05817 16.01176 3.286644 9.467618 16.01176 2.755906 10.91056 17.71654 1.279528 8.353395 19.42131 1.810266 6.910456 17.71654 0.7874016 7.501007 17.71654 2.302392 7.762843 19.42131 2.26378 10.05817 19.42131 2.302392 7.762843 19.42131 1.279528 8.353395 19.42131 3.286644 9.467618 19.42131 3.286644 9.467618 19.42131 2.755906 10.91056 17.71654 3.77877 10.32001 17.71654 2.26378 10.05817 19.42131</float_array>
                    <technique_common>
                        <accessor count="30" source="#ID30" stride="3">
                            <param name="X" type="float" />
                            <param name="Y" type="float" />
                            <param name="Z" type="float" />
                        </accessor>
                    </technique_common>
                </source>
                <source id="ID28">
                    <float_array id="ID31" count="90">-2.332102e-016 1.34644e-016 1 -2.332102e-016 1.34644e-016 1 -2.332102e-016 1.34644e-016 1 -2.332102e-016 1.34644e-016 1 0.4330127 0.75 0.5 0.4330127 0.75 0.5 0.4330127 0.75 0.5 0.4330127 0.75 0.5 -0.8660254 0.5 -2.692879e-016 -0.8660254 0.5 -2.692879e-016 -0.8660254 0.5 -2.692879e-016 -0.8660254 0.5 -2.692879e-016 -0.8660254 0.5 -2.692879e-016 -0.8660254 0.5 -2.692879e-016 -0.4330127 -0.75 0.5 -0.4330127 -0.75 0.5 -0.4330127 -0.75 0.5 -0.4330127 -0.75 0.5 0.4330127 0.75 -0.5 0.4330127 0.75 -0.5 0.4330127 0.75 -0.5 0.4330127 0.75 -0.5 -6.691791e-016 -1.697628e-015 -1 -6.691791e-016 -1.697628e-015 -1 -6.691791e-016 -1.697628e-015 -1 -6.691791e-016 -1.697628e-015 -1 -0.4330127 -0.75 -0.5 -0.4330127 -0.75 -0.5 -0.4330127 -0.75 -0.5 -0.4330127 -0.75 -0.5</float_array>
                    <technique_common>
                        <accessor count="30" source="#ID31" stride="3">
                            <param name="X" type="float" />
                            <param name="Y" type="float" />
                            <param name="Z" type="float" />
                        </accessor>
                    </technique_common>
                </source>
                <vertices id="ID29">
                    <input semantic="POSITION" source="#ID27" />
                    <input semantic="NORMAL" source="#ID28" />
                </vertices>
                <triangles count="16" material="Material2">
                    <input offset="0" semantic="VERTEX" source="#ID29" />
                    <p>0 1 2 1 0 3 4 5 6 5 4 7 8 9 10 9 8 11 11 8 12 11 12 13 14 15 16 15 14 17 18 19 20 19 18 21 22 23 24 23 22 25 26 27 28 27 26 29</p>
                </triangles>
            </mesh>
        </geometry>
        <geometry id="ID32">
            <mesh>
                <source id="ID33">
                    <float_array id="ID36" count="90">10.88658 2.806758 16.01176 10.88658 2.806758 19.42131 10.39446 1.954371 17.71654 11.87084 4.511532 19.42131 11.87084 4.511532 16.01176 12.36296 5.36392 17.71654 10.88658 2.806758 19.42131 11.41732 1.36382 17.71654 10.39446 1.954371 17.71654 11.90945 2.216207 19.42131 10.39446 1.954371 17.71654 11.90945 2.216207 16.01176 10.88658 2.806758 16.01176 11.41732 1.36382 17.71654 11.90945 2.216207 16.01176 11.87084 4.511532 16.01176 10.88658 2.806758 16.01176 12.8937 3.920981 16.01176 13.38583 4.773368 17.71654 11.87084 4.511532 16.01176 12.8937 3.920981 16.01176 12.36296 5.36392 17.71654 12.8937 3.920981 19.42131 12.36296 5.36392 17.71654 13.38583 4.773368 17.71654 11.87084 4.511532 19.42131 11.87084 4.511532 19.42131 11.90945 2.216207 19.42131 10.88658 2.806758 19.42131 12.8937 3.920981 19.42131</float_array>
                    <technique_common>
                        <accessor count="30" source="#ID36" stride="3">
                            <param name="X" type="float" />
                            <param name="Y" type="float" />
                            <param name="Z" type="float" />
                        </accessor>
                    </technique_common>
                </source>
                <source id="ID34">
                    <float_array id="ID37" count="90">0.8660254 -0.5 -2.775587e-016 0.8660254 -0.5 -2.775587e-016 0.8660254 -0.5 -2.775587e-016 0.8660254 -0.5 -2.775587e-016 0.8660254 -0.5 -2.775587e-016 0.8660254 -0.5 -2.775587e-016 0.4330127 0.75 -0.5 0.4330127 0.75 -0.5 0.4330127 0.75 -0.5 0.4330127 0.75 -0.5 0.4330127 0.75 0.5 0.4330127 0.75 0.5 0.4330127 0.75 0.5 0.4330127 0.75 0.5 2.403729e-016 -1.387794e-016 1 2.403729e-016 -1.387794e-016 1 2.403729e-016 -1.387794e-016 1 2.403729e-016 -1.387794e-016 1 -0.4330127 -0.75 0.5 -0.4330127 -0.75 0.5 -0.4330127 -0.75 0.5 -0.4330127 -0.75 0.5 -0.4330127 -0.75 -0.5 -0.4330127 -0.75 -0.5 -0.4330127 -0.75 -0.5 -0.4330127 -0.75 -0.5 6.620164e-016 1.701763e-015 -1 6.620164e-016 1.701763e-015 -1 6.620164e-016 1.701763e-015 -1 6.620164e-016 1.701763e-015 -1</float_array>
                    <technique_common>
                        <accessor count="30" source="#ID37" stride="3">
                            <param name="X" type="float" />
                            <param name="Y" type="float" />
                            <param name="Z" type="float" />
                        </accessor>
                    </technique_common>
                </source>
                <vertices id="ID35">
                    <input semantic="POSITION" source="#ID33" />
                    <input semantic="NORMAL" source="#ID34" />
                </vertices>
                <triangles count="16" material="Material2">
                    <input offset="0" semantic="VERTEX" source="#ID35" />
                    <p>0 1 2 1 0 3 3 0 4 3 4 5 6 7 8 7 6 9 10 11 12 11 10 13 14 15 16 15 14 17 18 19 20 19 18 21 22 23 24 23 22 25 26 27 28 27 26 29</p>
                </triangles>
            </mesh>
        </geometry>
        <geometry id="ID38">
            <mesh>
                <source id="ID39">
                    <float_array id="ID42" count="90">8.070866 11.09327 16.01176 6.102362 12.27438 16.01176 6.102362 11.09327 16.01176 8.070866 12.27438 16.01176 6.102362 12.27438 16.01176 5.11811 11.09327 17.71654 6.102362 11.09327 16.01176 5.11811 12.27438 17.71654 5.11811 11.09327 17.71654 8.070866 11.09327 16.01176 6.102362 11.09327 16.01176 9.055118 11.09327 17.71654 6.102362 11.09327 19.42131 8.070866 11.09327 19.42131 9.055118 12.27438 17.71654 8.070866 11.09327 16.01176 9.055118 11.09327 17.71654 8.070866 12.27438 16.01176 5.11811 12.27438 17.71654 6.102362 11.09327 19.42131 5.11811 11.09327 17.71654 6.102362 12.27438 19.42131 8.070866 12.27438 19.42131 6.102362 11.09327 19.42131 6.102362 12.27438 19.42131 8.070866 11.09327 19.42131 8.070866 12.27438 19.42131 9.055118 11.09327 17.71654 8.070866 11.09327 19.42131 9.055118 12.27438 17.71654</float_array>
                    <technique_common>
                        <accessor count="30" source="#ID42" stride="3">
                            <param name="X" type="float" />
                            <param name="Y" type="float" />
                            <param name="Z" type="float" />
                        </accessor>
                    </technique_common>
                </source>
                <source id="ID40">
                    <float_array id="ID43" count="90">0 0 1 0 0 1 0 0 1 0 0 1 0.8660254 0 0.5 0.8660254 0 0.5 0.8660254 0 0.5 0.8660254 0 0.5 0 1 0 0 1 0 0 1 0 0 1 0 0 1 0 0 1 0 -0.8660254 0 0.5 -0.8660254 0 0.5 -0.8660254 0 0.5 -0.8660254 0 0.5 0.8660254 0 -0.5 0.8660254 0 -0.5 0.8660254 0 -0.5 0.8660254 0 -0.5 0 0 -1 0 0 -1 0 0 -1 0 0 -1 -0.8660254 -0 -0.5 -0.8660254 -0 -0.5 -0.8660254 -0 -0.5 -0.8660254 -0 -0.5</float_array>
                    <technique_common>
                        <accessor count="30" source="#ID43" stride="3">
                            <param name="X" type="float" />
                            <param name="Y" type="float" />
                            <param name="Z" type="float" />
                        </accessor>
                    </technique_common>
                </source>
                <vertices id="ID41">
                    <input semantic="POSITION" source="#ID39" />
                    <input semantic="NORMAL" source="#ID40" />
                </vertices>
                <triangles count="16" material="Material2">
                    <input offset="0" semantic="VERTEX" source="#ID41" />
                    <p>0 1 2 1 0 3 4 5 6 5 4 7 8 9 10 9 8 11 11 8 12 11 12 13 14 15 16 15 14 17 18 19 20 19 18 21 22 23 24 23 22 25 26 27 28 27 26 29</p>
                </triangles>
            </mesh>
        </geometry>
        <geometry id="ID44">
            <mesh>
                <source id="ID45">
                    <float_array id="ID48" count="90">11.87084 7.762843 16.01176 11.90945 10.05817 16.01176 10.88658 9.467618 16.01176 12.8937 8.353395 16.01176 11.41732 10.91056 17.71654 10.88658 9.467618 16.01176 11.90945 10.05817 16.01176 10.39446 10.32001 17.71654 11.87084 7.762843 16.01176 11.87084 7.762843 19.42131 12.36296 6.910456 17.71654 10.88658 9.467618 19.42131 10.88658 9.467618 16.01176 10.39446 10.32001 17.71654 12.36296 6.910456 17.71654 12.8937 8.353395 16.01176 11.87084 7.762843 16.01176 13.38583 7.501007 17.71654 11.90945 10.05817 19.42131 10.39446 10.32001 17.71654 11.41732 10.91056 17.71654 10.88658 9.467618 19.42131 11.90945 10.05817 19.42131 11.87084 7.762843 19.42131 10.88658 9.467618 19.42131 12.8937 8.353395 19.42131 11.87084 7.762843 19.42131 13.38583 7.501007 17.71654 12.36296 6.910456 17.71654 12.8937 8.353395 19.42131</float_array>
                    <technique_common>
                        <accessor count="30" source="#ID48" stride="3">
                            <param name="X" type="float" />
                            <param name="Y" type="float" />
                            <param name="Z" type="float" />
                        </accessor>
                    </technique_common>
                </source>
                <source id="ID46">
                    <float_array id="ID49" count="90">-2.332102e-016 -1.34644e-016 1 -2.332102e-016 -1.34644e-016 1 -2.332102e-016 -1.34644e-016 1 -2.332102e-016 -1.34644e-016 1 0.4330127 -0.75 0.5 0.4330127 -0.75 0.5 0.4330127 -0.75 0.5 0.4330127 -0.75 0.5 0.8660254 0.5 2.692879e-016 0.8660254 0.5 2.692879e-016 0.8660254 0.5 2.692879e-016 0.8660254 0.5 2.692879e-016 0.8660254 0.5 2.692879e-016 0.8660254 0.5 2.692879e-016 -0.4330127 0.75 0.5 -0.4330127 0.75 0.5 -0.4330127 0.75 0.5 -0.4330127 0.75 0.5 0.4330127 -0.75 -0.5 0.4330127 -0.75 -0.5 0.4330127 -0.75 -0.5 0.4330127 -0.75 -0.5 -6.691791e-016 1.697628e-015 -1 -6.691791e-016 1.697628e-015 -1 -6.691791e-016 1.697628e-015 -1 -6.691791e-016 1.697628e-015 -1 -0.4330127 0.75 -0.5 -0.4330127 0.75 -0.5 -0.4330127 0.75 -0.5 -0.4330127 0.75 -0.5</float_array>
                    <technique_common>
                        <accessor count="30" source="#ID49" stride="3">
                            <param name="X" type="float" />
                            <param name="Y" type="float" />
                            <param name="Z" type="float" />
                        </accessor>
                    </technique_common>
                </source>
                <vertices id="ID47">
                    <input semantic="POSITION" source="#ID45" />
                    <input semantic="NORMAL" source="#ID46" />
                </vertices>
                <triangles count="16" material="Material2">
                    <input offset="0" semantic="VERTEX" source="#ID47" />
                    <p>0 1 2 1 0 3 4 5 6 5 4 7 8 9 10 9 8 11 11 8 12 11 12 13 14 15 16 15 14 17 18 19 20 19 18 21 22 23 24 23 22 25 26 27 28 27 26 29</p>
                </triangles>
            </mesh>
        </geometry>
        <geometry id="ID50">
            <mesh>
                <source id="ID51">
                    <float_array id="ID54" count="90">4.652779 10.35271 39.37008 2.218944 6.137188 35.43307 2.218944 6.137188 39.37008 4.652779 10.35271 35.43307 2.218944 6.137188 39.37008 4.652779 1.921662 35.43307 4.652779 1.921662 39.37008 2.218944 6.137188 35.43307 4.652779 1.921662 39.37008 4.652779 10.35271 39.37008 2.218944 6.137188 39.37008 9.520449 1.921662 39.37008 9.520449 10.35271 39.37008 11.95428 6.137188 39.37008 4.652779 10.35271 39.37008 9.520449 10.35271 35.43307 4.652779 10.35271 35.43307 9.520449 10.35271 39.37008 9.520449 1.921662 39.37008 4.652779 1.921662 35.43307 9.520449 1.921662 35.43307 4.652779 1.921662 39.37008 11.95428 6.137188 35.43307 9.520449 1.921662 39.37008 9.520449 1.921662 35.43307 11.95428 6.137188 39.37008 9.520449 10.35271 35.43307 11.95428 6.137188 39.37008 11.95428 6.137188 35.43307 9.520449 10.35271 39.37008</float_array>
                    <technique_common>
                        <accessor count="30" source="#ID54" stride="3">
                            <param name="X" type="float" />
                            <param name="Y" type="float" />
                            <param name="Z" type="float" />
                        </accessor>
                    </technique_common>
                </source>
                <source id="ID52">
                    <float_array id="ID55" count="90">-0.8660254 0.5 0 -0.8660254 0.5 0 -0.8660254 0.5 0 -0.8660254 0.5 0 -0.8660254 -0.5 -0 -0.8660254 -0.5 -0 -0.8660254 -0.5 -0 -0.8660254 -0.5 -0 0 0 1 0 0 1 0 0 1 0 0 1 0 0 1 0 0 1 0 1 0 0 1 0 0 1 0 0 1 0 0 -1 0 0 -1 0 0 -1 0 0 -1 0 0.8660254 -0.5 0 0.8660254 -0.5 0 0.8660254 -0.5 0 0.8660254 -0.5 0 0.8660254 0.5 0 0.8660254 0.5 0 0.8660254 0.5 0 0.8660254 0.5 0</float_array>
                    <technique_common>
                        <accessor count="30" source="#ID55" stride="3">
                            <param name="X" type="float" />
                            <param name="Y" type="float" />
                            <param name="Z" type="float" />
                        </accessor>
                    </technique_common>
                </source>
                <vertices id="ID53">
                    <input semantic="POSITION" source="#ID51" />
                    <input semantic="NORMAL" source="#ID52" />
                </vertices>
                <triangles count="16" material="Material2">
                    <input offset="0" semantic="VERTEX" source="#ID53" />
                    <p>0 1 2 1 0 3 4 5 6 5 4 7 8 9 10 9 8 11 9 11 12 12 11 13 14 15 16 15 14 17 18 19 20 19 18 21 22 23 24 23 22 25 26 27 28 27 26 29</p>
                </triangles>
            </mesh>
        </geometry>
        <geometry id="ID56">
            <mesh>
                <source id="ID59">
                    <float_array id="ID62" count="90">3.543307 0 35.43307 2.755906 1.36382 17.71654 3.543307 0 0 0 6.137188 35.43307 2.26378 2.216207 19.42131 1.279528 3.920981 19.42131 0.7874016 4.773368 17.71654 0 6.137188 0 2.26378 2.216207 16.01176 1.279528 3.920981 16.01176 0 6.137188 35.43307 0.7874016 7.501007 17.71654 0 6.137188 0 3.543307 12.27438 35.43307 1.279528 8.353395 19.42131 2.26378 10.05817 19.42131 2.755906 10.91056 17.71654 3.543307 12.27438 0 1.279528 8.353395 16.01176 2.26378 10.05817 16.01176 3.543307 12.27438 0 5.11811 12.27438 17.71654 10.62992 12.27438 0 3.543307 12.27438 35.43307 6.102362 12.27438 16.01176 6.102362 12.27438 19.42131 8.070866 12.27438 19.42131 9.055118 12.27438 17.71654 10.62992 12.27438 35.43307 8.070866 12.27438 16.01176</float_array>
                    <technique_common>
                        <accessor count="30" source="#ID62" stride="3">
                            <param name="X" type="float" />
                            <param name="Y" type="float" />
                            <param name="Z" type="float" />
                        </accessor>
                    </technique_common>
                </source>
                <source id="ID60">
                    <float_array id="ID63" count="90">-0.8660254 -0.5 5.057545e-018 -0.8660254 -0.5 5.057545e-018 -0.8660254 -0.5 5.057545e-018 -0.8660254 -0.5 5.057545e-018 -0.8660254 -0.5 5.057545e-018 -0.8660254 -0.5 5.057545e-018 -0.8660254 -0.5 5.057545e-018 -0.8660254 -0.5 5.057545e-018 -0.8660254 -0.5 5.057545e-018 -0.8660254 -0.5 5.057545e-018 -0.8660254 0.5 -5.492413e-019 -0.8660254 0.5 -5.492413e-019 -0.8660254 0.5 -5.492413e-019 -0.8660254 0.5 -5.492413e-019 -0.8660254 0.5 -5.492413e-019 -0.8660254 0.5 -5.492413e-019 -0.8660254 0.5 -5.492413e-019 -0.8660254 0.5 -5.492413e-019 -0.8660254 0.5 -5.492413e-019 -0.8660254 0.5 -5.492413e-019 0 1 0 0 1 0 0 1 0 0 1 0 0 1 0 0 1 0 0 1 0 0 1 0 0 1 0 0 1 0</float_array>
                    <technique_common>
                        <accessor count="30" source="#ID63" stride="3">
                            <param name="X" type="float" />
                            <param name="Y" type="float" />
                            <param name="Z" type="float" />
                        </accessor>
                    </technique_common>
                </source>
                <vertices id="ID61">
                    <input semantic="POSITION" source="#ID59" />
                    <input semantic="NORMAL" source="#ID60" />
                </vertices>
                <triangles count="30" material="Material2">
                    <input offset="0" semantic="VERTEX" source="#ID61" />
                    <p>0 1 2 1 0 3 1 3 4 4 3 5 5 3 6 1 7 2 7 1 8 7 8 9 7 9 6 7 6 3 10 11 12 11 10 13 11 13 14 14 13 15 15 13 16 11 17 12 17 11 18 17 18 19 17 19 16 17 16 13 20 21 22 21 20 23 22 21 24 21 23 25 25 23 26 22 27 28 27 22 29 29 22 24 28 27 26 28 26 23</p>
                </triangles>
            </mesh>
        </geometry>
        <geometry id="ID64">
            <mesh>
                <source id="ID67">
                    <float_array id="ID70" count="36">3.543307 0 35.43307 2.218944 6.137188 35.43307 0 6.137188 35.43307 4.652779 1.921662 35.43307 10.62992 0 35.43307 9.520449 1.921662 35.43307 11.95428 6.137188 35.43307 14.17323 6.137188 35.43307 3.543307 12.27438 35.43307 4.652779 10.35271 35.43307 10.62992 12.27438 35.43307 9.520449 10.35271 35.43307</float_array>
                    <technique_common>
                        <accessor count="12" source="#ID70" stride="3">
                            <param name="X" type="float" />
                            <param name="Y" type="float" />
                            <param name="Z" type="float" />
                        </accessor>
                    </technique_common>
                </source>
                <source id="ID68">
                    <float_array id="ID71" count="36">0 0 1 0 0 1 0 0 1 0 0 1 0 0 1 0 0 1 0 0 1 0 0 1 0 0 1 0 0 1 0 0 1 0 0 1</float_array>
                    <technique_common>
                        <accessor count="12" source="#ID71" stride="3">
                            <param name="X" type="float" />
                            <param name="Y" type="float" />
                            <param name="Z" type="float" />
                        </accessor>
                    </technique_common>
                </source>
                <vertices id="ID69">
                    <input semantic="POSITION" source="#ID67" />
                    <input semantic="NORMAL" source="#ID68" />
                </vertices>
                <triangles count="12" material="Material2">
                    <input offset="0" semantic="VERTEX" source="#ID69" />
                    <p>0 1 2 1 0 3 3 0 4 3 4 5 5 4 6 6 4 7 1 8 2 8 1 9 8 9 10 10 9 11 10 11 6 10 6 7</p>
                </triangles>
            </mesh>
        </geometry>
        <geometry id="ID72">
            <mesh>
                <source id="ID73">
                    <float_array id="ID76" count="90">10.62992 0 0 9.055118 0 17.71654 3.543307 0 0 10.62992 0 35.43307 8.070866 0 16.01176 8.070866 0 19.42131 6.102362 0 19.42131 5.11811 0 17.71654 3.543307 0 35.43307 6.102362 0 16.01176 10.62992 0 0 11.41732 1.36382 17.71654 10.62992 0 35.43307 14.17323 6.137188 0 11.90945 2.216207 16.01176 12.8937 3.920981 16.01176 13.38583 4.773368 17.71654 14.17323 6.137188 35.43307 11.90945 2.216207 19.42131 12.8937 3.920981 19.42131 14.17323 6.137188 0 13.38583 7.501007 17.71654 14.17323 6.137188 35.43307 10.62992 12.27438 0 12.8937 8.353395 16.01176 11.90945 10.05817 16.01176 11.41732 10.91056 17.71654 10.62992 12.27438 35.43307 12.8937 8.353395 19.42131 11.90945 10.05817 19.42131</float_array>
                    <technique_common>
                        <accessor count="30" source="#ID76" stride="3">
                            <param name="X" type="float" />
                            <param name="Y" type="float" />
                            <param name="Z" type="float" />
                        </accessor>
                    </technique_common>
                </source>
                <source id="ID74">
                    <float_array id="ID77" count="90">0 -1 0 0 -1 0 0 -1 0 0 -1 0 0 -1 0 0 -1 0 0 -1 0 0 -1 0 0 -1 0 0 -1 0 0.8660254 -0.5 -4.681913e-018 0.8660254 -0.5 -4.681913e-018 0.8660254 -0.5 -4.681913e-018 0.8660254 -0.5 -4.681913e-018 0.8660254 -0.5 -4.681913e-018 0.8660254 -0.5 -4.681913e-018 0.8660254 -0.5 -4.681913e-018 0.8660254 -0.5 -4.681913e-018 0.8660254 -0.5 -4.681913e-018 0.8660254 -0.5 -4.681913e-018 0.8660254 0.5 1.990939e-018 0.8660254 0.5 1.990939e-018 0.8660254 0.5 1.990939e-018 0.8660254 0.5 1.990939e-018 0.8660254 0.5 1.990939e-018 0.8660254 0.5 1.990939e-018 0.8660254 0.5 1.990939e-018 0.8660254 0.5 1.990939e-018 0.8660254 0.5 1.990939e-018 0.8660254 0.5 1.990939e-018</float_array>
                    <technique_common>
                        <accessor count="30" source="#ID77" stride="3">
                            <param name="X" type="float" />
                            <param name="Y" type="float" />
                            <param name="Z" type="float" />
                        </accessor>
                    </technique_common>
                </source>
                <vertices id="ID75">
                    <input semantic="POSITION" source="#ID73" />
                    <input semantic="NORMAL" source="#ID74" />
                </vertices>
                <triangles count="30" material="Material2">
                    <input offset="0" semantic="VERTEX" source="#ID75" />
                    <p>0 1 2 1 0 3 2 1 4 1 3 5 5 3 6 2 7 8 7 2 9 9 2 4 8 7 6 8 6 3 10 11 12 11 10 13 11 13 14 14 13 15 15 13 16 11 17 12 17 11 18 17 18 19 17 19 16 17 16 13 20 21 22 21 20 23 21 23 24 24 23 25 25 23 26 21 27 22 27 21 28 27 28 29 27 29 26 27 26 23</p>
                </triangles>
            </mesh>
        </geometry>
        <geometry id="ID78">
            <mesh>
                <source id="ID79">
                    <float_array id="ID82" count="18">3.543307 12.27438 0 3.543307 0 0 0 6.137188 0 10.62992 0 0 10.62992 12.27438 0 14.17323 6.137188 0</float_array>
                    <technique_common>
                        <accessor count="6" source="#ID82" stride="3">
                            <param name="X" type="float" />
                            <param name="Y" type="float" />
                            <param name="Z" type="float" />
                        </accessor>
                    </technique_common>
                </source>
                <source id="ID80">
                    <float_array id="ID83" count="18">0 0 -1 0 0 -1 0 0 -1 0 0 -1 0 0 -1 0 0 -1</float_array>
                    <technique_common>
                        <accessor count="6" source="#ID83" stride="3">
                            <param name="X" type="float" />
                            <param name="Y" type="float" />
                            <param name="Z" type="float" />
                        </accessor>
                    </technique_common>
                </source>
                <vertices id="ID81">
                    <input semantic="POSITION" source="#ID79" />
                    <input semantic="NORMAL" source="#ID80" />
                </vertices>
                <triangles count="4" material="Material2">
                    <input offset="0" semantic="VERTEX" source="#ID81" />
                    <p>0 1 2 1 0 3 3 0 4 3 4 5</p>
                </triangles>
            </mesh>
        </geometry>
    </library_geometries>
    <library_materials>
        <material id="ID5" name="material_3">
            <instance_effect url="#ID6" />
        </material>
        <material id="ID13" name="material_1">
            <instance_effect url="#ID14" />
        </material>
        <material id="ID57" name="material_2">
            <instance_effect url="#ID58" />
        </material>
        <material id="ID66" name="material">
            <instance_effect url="#ID65" />
        </material>
    </library_materials>
    <library_effects>
        <effect id="ID6">
            <profile_COMMON>
                <technique sid="COMMON">
                    <lambert>
                        <diffuse>
                            <color>0.4 0.4 0.4 1</color>
                        </diffuse>
                    </lambert>
                </technique>
            </profile_COMMON>
        </effect>
        <effect id="ID14">
            <profile_COMMON>
                <technique sid="COMMON">
                    <lambert>
                        <diffuse>
                            <color>0 0.5019608 0.5019608 1</color>
                        </diffuse>
                    </lambert>
                </technique>
            </profile_COMMON>
        </effect>
        <effect id="ID58">
            <profile_COMMON>
                <technique sid="COMMON">
                    <lambert>
                        <diffuse>
                            <color>0.6 0.6 0.6 1</color>
                        </diffuse>
                    </lambert>
                </technique>
            </profile_COMMON>
        </effect>
        <effect id="ID65">
            <profile_COMMON>
                <technique sid="COMMON">
                    <lambert>
                        <diffuse>
                            <color>1 1 1 1</color>
                        </diffuse>
                    </lambert>
                </technique>
            </profile_COMMON>
        </effect>
    </library_effects>
    <scene>
        <instance_visual_scene url="#ID1" />
    </scene>
</COLLADA>
